<svg width="75" height="75" viewBox="0 0 75 75" fill="none" xmlns="http://www.w3.org/2000/svg">
<path d="M37.5 0C16.7893 0 0 16.7893 0 37.5C0 58.2107 16.7893 75 37.5 75C58.2107 75 75 58.2107 75 37.5C75 16.7893 58.2107 0 37.5 0ZM36.2274 13.8611H38.7726V21.3638H36.2274V13.8611ZM25.8179 16.1133L30.1209 22.2564L28.0335 23.7213L23.7305 17.5781L25.8179 16.1133ZM49.1821 16.1133L51.2695 17.5781L46.9665 23.7213L44.8791 22.2564L49.1821 16.1133ZM37.5 23.4146C43.7346 23.4146 48.7884 27.1989 48.7884 31.8695L42.3752 51.2924H32.6248L26.2116 31.8695C26.2116 27.1989 31.2658 23.4146 37.5 23.4146ZM17.2256 25.6668L24.2752 28.2349L23.4009 30.629L16.3559 28.0609L17.2256 25.6668ZM57.7744 25.6668L58.6441 28.0609L51.5946 30.629L50.7248 28.2349L57.7744 25.6668ZM23.9364 36.6211L24.5956 39.0839L17.3493 41.0248L16.6901 38.5621L23.9364 36.6211ZM51.0636 36.6211L58.3099 38.5621L57.6507 41.0248L50.4044 39.0839L51.0636 36.6211ZM32.4829 52.7115H42.5171V56.0852H32.4829V52.7115ZM32.4829 57.7652H42.5171V61.1389H32.4829V57.7652Z" fill="black"/>
</svg>
