<svg width="22" height="22" viewBox="0 0 22 22" fill="none" xmlns="http://www.w3.org/2000/svg">
<path d="M20.1666 18.3334V11.1596C20.1666 10.6605 20.0648 10.1666 19.8673 9.70827C19.6698 9.24991 19.3808 8.83669 19.018 8.49393L12.2594 2.1066C11.919 1.78478 11.4684 1.60547 10.9999 1.60547C10.5315 1.60547 10.0808 1.78478 9.74042 2.1066L2.98184 8.49393C2.61904 8.83669 2.33004 9.24991 2.13254 9.70827C1.93504 10.1666 1.8332 10.6605 1.83325 11.1596V18.3334C1.83325 18.8197 2.02641 19.286 2.37022 19.6298C2.71404 19.9736 3.18036 20.1668 3.66659 20.1668H18.3333C18.8195 20.1668 19.2858 19.9736 19.6296 19.6298C19.9734 19.286 20.1666 18.8197 20.1666 18.3334Z" stroke="#C4C4C4" stroke-width="2" stroke-linecap="round" stroke-linejoin="round"/>
</svg>
