<svg width="124" height="101" viewBox="0 0 124 101" fill="none" xmlns="http://www.w3.org/2000/svg">
<path d="M58.2844 79.5642C44.9736 69.4262 36.1056 59.8989 31.6805 50.9822C27.3396 42.0285 26.9631 32.9403 30.5508 23.7177C34.6105 13.2817 42.1184 6.28267 53.0745 2.72074C64.1148 -0.87826 76.3091 -0.0813969 89.6576 5.11133C98.7588 8.65183 106.174 13.5624 111.904 19.8432C117.695 26.1475 121.328 33.1494 122.804 40.8488C124.34 48.5719 123.68 56.1042 120.824 63.4459L103.259 56.6127C106.375 48.6037 106.269 41.3325 102.943 34.7992C99.6399 28.2052 93.3469 23.1026 84.0636 19.4913C75.4478 16.1396 67.9694 15.4309 61.6284 17.3651C55.3717 19.2623 50.9333 23.5784 48.3134 30.3133C46.2127 35.7133 46.7059 41.1794 49.7931 46.7115C52.9646 52.2065 59.4396 58.6373 69.2179 66.0039C79.057 73.3942 86.3392 80.174 91.0647 86.3433C95.8744 92.4756 98.798 98.6077 99.8356 104.74C100.934 110.895 100.173 117.34 97.5531 124.075C93.3753 134.815 85.837 141.802 74.9384 145.037C64.0633 148.211 51.6178 147.072 37.6019 141.62C28.5007 138.079 20.6789 133.046 14.1366 126.519C7.61783 119.931 3.38467 112.766 1.43708 105.022C-0.449826 97.3026 0.10553 89.5899 3.10315 81.8842L20.6685 88.7173C17.5529 96.7264 18.0291 104.212 22.0971 111.173C26.2494 118.098 33.2705 123.483 43.1605 127.331C52.3831 130.919 60.1834 131.787 66.5615 129.937C72.9395 128.087 77.3913 123.916 79.9169 117.424C82.4424 110.932 82.1144 105.041 78.9328 99.7517C75.7748 94.4017 68.892 87.6725 58.2844 79.5642Z" fill="white"/>
</svg>
