<svg width="12" height="14" viewBox="0 0 12 14" fill="none" xmlns="http://www.w3.org/2000/svg">
<path d="M7.04297 5.84766H11.8008V7.89844H7.04297V13.2891H4.86328V7.89844H0.105469V5.84766H4.86328V0.867188H7.04297V5.84766Z" fill="black"/>
</svg>
