<svg width="16" height="16" viewBox="0 0 16 16" fill="none" xmlns="http://www.w3.org/2000/svg">
<path d="M4.66659 8.00016L7.33325 10.0002L10.6666 5.3335M7.99992 14.6668C11.6819 14.6668 14.6666 11.6822 14.6666 8.00016C14.6666 4.31816 11.6819 1.3335 7.99992 1.3335C4.31792 1.3335 1.33325 4.31816 1.33325 8.00016C1.33325 11.6822 4.31792 14.6668 7.99992 14.6668Z" stroke="black" stroke-width="2"/>
</svg>
